﻿IRANYekan fonts are considered a proprietary software.
To gain information about the laws regarding the use of these fonts, please visit www.fontiran.com 

This set of fonts are used in this project under the license: (.....)

'''''''''''''''''''''''''''''''''''''''''''''''''''''''''''''''''''''''''''''''''''''''''''''''''''''''''''''''''''''''''''''''''''''''''''''''''''''''''''''''''''''''''''''''''''''''''''''''''''''''''''''''''''
In case you use this set of fonts in a software product, write the license code in the specified place and place this file next to the fonts.

'''''''''''''''''''''''''''''''''''''''''''''''''''''''''''''''''''''''''''''''''''''''''''''''''''''''''''''''''''''''''''''''''''''''''''''''''''''''''''''''''''''''''''''''''''''''''''''''''''''''''''''''''''
فونت های ايران‌یکان يک نرم افزار مالکيتی محسوب می شود جهت آگاهی از قوانين استفاده از اين فونت‌ها لطفاً به  وبسايت 
www.fontiran.com 
مراجعه نماييد 
اين مجموعه فونت تحت اجازه نامه 
(PKKAK)
در اين پروژه استفاده می شود

'''''''''''''''''''''''''''''''''''''''''''''''''''''''''''''''''''''''''''''''''''''''''''''''''''''''''''''''''''''''''''''''''''''''''''''''''''''''''''''''''''''''''''''''''''''''''''''''''''''''''''''''''''
در صورت استفاده از این مجموعه فونت در یک محصول نرم افزاری‌ یا وب‌سایت کد ۵ رقمی لایسنس خود را در محل مشخص شده (.....) درج کنید و این فایل را در کنار فونت ها قرار دهید.
